simulation/qsim/music_cal.msim.vcd
$comment
	File created using the following command:
		vcd file music_cal.msim.vcd -direction
$end
$date
	Fri Jun 30 15:01:19 2017
$end
$version
	ModelSim Version 10.1d
$end
$timescale
	1ps
$end
$scope module test_vlg_vec_tst $end
$var reg 1 ! a $end
$var reg 1 " c $end
$var wire 1 # b [3] $end
$var wire 1 $ b [2] $end
$var wire 1 % b [1] $end
$var wire 1 & b [0] $end
$var wire 1 ' sampler $end
$scope module i1 $end
$var wire 1 ( gnd $end
$var wire 1 ) vcc $end
$var wire 1 * unknown $end
$var tri1 1 + devclrn $end
$var tri1 1 , devpor $end
$var tri1 1 - devoe $end
$var wire 1 . a~combout $end
$var wire 1 / b[0]~3_combout $end
$var wire 1 0 b[0]~reg0_regout $end
$var wire 1 1 b~1_combout $end
$var wire 1 2 b[2]~reg0_regout $end
$var wire 1 3 b~2_combout $end
$var wire 1 4 b[3]~reg0_regout $end
$var wire 1 5 b~0_combout $end
$var wire 1 6 b[1]~reg0_regout $end
$upscope $end
$upscope $end
$enddefinitions $end
#0
$dumpvars
0!
0"
0&
0%
0$
0#
x'
0(
1)
x*
1+
1,
1-
0.
1/
00
01
02
03
04
15
06
$end
#20000
1"
0'
#25000
1!
1.
1'
16
10
11
0/
1%
1&
#40000
0"
0'
#50000
0!
0.
1'
#60000
1"
0'
#75000
1!
1.
1'
12
00
05
13
01
1/
1$
0&
#80000
0"
0'
#100000
0!
1"
0.
1'
#120000
0"
0'
#125000
1!
1.
1'
06
14
02
10
11
0/
0%
1#
0$
1&
#140000
1"
0'
#150000
0!
0.
1'
#160000
0"
0'
#175000
1!
1.
1'
12
00
15
1/
1$
0&
#180000
1"
0'
#200000
0!
0"
0.
1'
#220000
1"
0'
#225000
1!
1.
1'
16
10
05
03
01
0/
1%
1&
#240000
0"
0'
#250000
0!
0.
1'
#260000
1"
0'
#275000
1!
1.
1'
06
04
02
00
15
1/
0%
0#
0$
0&
#280000
0"
0'
#300000
0!
1"
0.
1'
#320000
0"
0'
#325000
1!
1.
1'
16
10
11
0/
1%
1&
#340000
1"
0'
#350000
0!
0.
1'
#360000
0"
0'
#375000
1!
1.
1'
12
00
05
13
01
1/
1$
0&
#380000
1"
0'
#400000
0!
0"
0.
1'
#420000
1"
0'
#425000
1!
1.
1'
06
14
02
10
11
0/
0%
1#
0$
1&
#440000
0"
0'
#450000
0!
0.
1'
#460000
1"
0'
#475000
1!
1.
1'
12
00
15
1/
1$
0&
#480000
0"
0'
#500000
0!
1"
0.
1'
#520000
0"
0'
#525000
1!
1.
1'
16
10
05
03
01
0/
1%
1&
#540000
1"
0'
#550000
0!
0.
1'
#560000
0"
0'
#575000
1!
1.
1'
06
04
02
00
15
1/
0%
0#
0$
0&
#580000
1"
0'
#600000
0!
0"
0.
1'
#620000
1"
0'
#625000
1!
1.
1'
16
10
11
0/
1%
1&
#640000
0"
0'
#650000
0!
0.
1'
#660000
1"
0'
#675000
1!
1.
1'
12
00
05
13
01
1/
1$
0&
#680000
0"
0'
#700000
0!
1"
0.
1'
#720000
0"
0'
#725000
1!
1.
1'
06
14
02
10
11
0/
0%
1#
0$
1&
#740000
1"
0'
#750000
0!
0.
1'
#760000
0"
0'
#775000
1!
1.
1'
12
00
15
1/
1$
0&
#780000
1"
0'
#800000
0!
0"
0.
1'
#820000
1"
0'
#825000
1!
1.
1'
16
10
05
03
01
0/
1%
1&
#840000
0"
0'
#850000
0!
0.
1'
#860000
1"
0'
#875000
1!
1.
1'
06
04
02
00
15
1/
0%
0#
0$
0&
#880000
0"
0'
#900000
0!
1"
0.
1'
#920000
0"
0'
#925000
1!
1.
1'
16
10
11
0/
1%
1&
#940000
1"
0'
#950000
0!
0.
1'
#960000
0"
0'
#975000
1!
1.
1'
12
00
05
13
01
1/
1$
0&
#980000
1"
0'
